INDEX VERSION 1.130+C:\FSD56\module_4student\SpringBoot\WorkSpace1\.metadata\.plugins\org.eclipse.jdt.core
836398687.index
1428054850.index
2276852017.index
3546258283.index
485263935.index
1953551144.index
3641608029.index
479916759.index
2066830214.index
2763161265.index
2667682979.index
1307797325.index
3640550424.index
916731587.index
3803779985.index
12849560.index
3348520720.index
276435115.index
2370130316.index
2335239562.index
2649692746.index
3000369082.index
1662871387.index
895354549.index
542153213.index
3592572553.index
898519999.index
3329545430.index
4138326577.index
540180158.index
802271765.index
2316295288.index
3903960595.index
1134481626.index
3913763786.index
1571281420.index
2553429393.index
322839301.index
552922976.index
3313284847.index
3803989387.index
756472812.index
2941549373.index
4004743926.index
3040837599.index
3377724264.index
3684982396.index
1679662429.index
2507423472.index
1864546485.index
322879191.index
4280990323.index
1961815414.index
3891448457.index
411227453.index
481857548.index
2710755217.index
4135958314.index
2564768700.index
1285332470.index
148824542.index
1195447773.index
1139899319.index
4187558973.index
2643005807.index
2482928712.index
3208895484.index
162918222.index
325165797.index
3025772330.index
897999788.index
1958750612.index
1926948853.index
674573568.index
4206936903.index
2384494384.index
2885606711.index
3935295328.index
1946725198.index
75688205.index
3644761064.index
2302627956.index
1672155452.index
2751720712.index
2205283528.index
4175440899.index
1452965295.index
103378668.index
3689040725.index
2492725560.index
92730331.index
4164993657.index
4259073463.index
1956904976.index
2643230273.index
3060133395.index
3245110364.index
1049239445.index
2926626735.index
3168744178.index
2739327556.index
